Spatial data and topology • anglr
…
ptabs$o

## # A tibble: 4 x 3
##               name     color    object_
## *           <fctr>     <chr>      <chr>
## 1        Australia #440154FF CU92FoIIVe
## 2        Indonesia #31688EFF iU8tl8bf93
## 3      New Zealand #35B779FF i0lRAzDfj5
## 4 Papua New Guinea #FDE725FF 01QCdfesoB

The branches record which object they belong to.

ptabs$b

## # A tibble: 21 x 3
##       object_    branch_ island_
##         <chr>      <chr>   <lgl>
##  1 CU92FoIIVe luW7xnb9SL    TRUE
##  2 CU92FoIIVe VB4bkQg1oJ    TRUE
##  3 iU8tl8bf93 L82ZXCW3Hg    TRUE
##  4 iU8tl8bf93 Wyykld0Uha    TRUE
##  5 iU8tl8bf93 sRKBBCBF6h    TRUE
##  6 iU8tl8bf93 G9cQaZwu02    TRUE
##  7 iU8tl8bf93 uhcJYb27J0    TRUE
##  8 iU8tl8bf93 rxRd3a56DI    TRUE
##  9 iU8tl8bf93 hZ4lXxuQfp    TRUE
## 10 iU8tl8bf93 XqaY4Tv8gS    TRUE
## # ... with 11 more rows

The branches-link-vertex table records the relationship between vertices and branches (by default the de-duplication is done in X-Y but it could be done in other geometric spaces, e.g. in 1D time or 3D X-Y-Z or X-Y-Time).

This is the instances of vertices as opposed to the unique paired values of coordinates themselves.

ptabs$bXv

## # A tibble: 638 x 3
##       branch_ order_    vertex_
##         <chr>  <int>      <chr>
##  1 luW7xnb9SL      1 QqLpqwKW9H
##  2 luW7xnb9SL      2 100n7GrKl0
##  3 luW7xnb9SL      3 hhybIJEzIY
##  4 luW7xnb9SL      4 6ijyhxtKZi
##  5 luW7xnb9SL      5 FtvtWBlEAH
##  6 luW7xnb9SL      6 RnzNuzcovi
##  7 luW7xnb9SL      7 nV4hqvBjw2
##  8 luW7xnb9SL      8 GoPa1bdLBo
##  9 luW7xnb9SL      9 lXhZhorjsn
## 10 luW7xnb9SL     10 SO7y5ifMDu
## # ... with 628 more rows

And finally the vertices. In this example there are fewer unique x-y vertex than there are instance of the vertices, not a one-to-one match. This discrepancy obviously increases greatly for layers with shared boundaries, though in this example it is mostly due to the final closing coordinate on each polygon path - it’s a repeated instance, but not a repeated vertex value. There is at least one shared edge in this layer, clearly the one between Indonesia and Papua New Guinea.

ptabs$v

## # A tibble: 614 x 3
##          x_        y_    vertex_
##       <dbl>     <dbl>      <chr>
##  1 145.3980 -40.79255 QqLpqwKW9H
##  2 146.3641 -41.13770 100n7GrKl0
##  3 146.9086 -41.00055 hhybIJEzIY
##  4 147.6893 -40.80826 6ijyhxtKZi
##  5 148.2891 -40.87544 FtvtWBlEAH
##  6 148.3599 -42.06245 RnzNuzcovi
##  7 148.0173 -42.40702 nV4hqvBjw2
##  8 147.9141 -43.21152 GoPa1bdLBo
##  9 147.5646 -42.93769 lXhZhorjsn
## 10 146.8703 -43.63460 SO7y5ifMDu
## # ... with 604 more rows
…
## ------------------------------
## $o
## # A tibble: 4 x 3
##               name     color    object_
## *           <fctr>     <chr>      <chr>
## 1        Australia #440154FF CU92FoIIVe
## 2        Indonesia #31688EFF iU8tl8bf93
## 3      New Zealand #35B779FF i0lRAzDfj5
## 4 Papua New Guinea #FDE725FF 01QCdfesoB
## 
## 
## ------------------------------
## $b
## # A tibble: 21 x 3
##       object_    branch_ island_
##         <chr>      <chr>   <lgl>
##  1 CU92FoIIVe luW7xnb9SL    TRUE
##  2 CU92FoIIVe VB4bkQg1oJ    TRUE
##  3 iU8tl8bf93 L82ZXCW3Hg    TRUE
##  4 iU8tl8bf93 Wyykld0Uha    TRUE
##  5 iU8tl8bf93 sRKBBCBF6h    TRUE
##  6 iU8tl8bf93 G9cQaZwu02    TRUE
##  7 iU8tl8bf93 uhcJYb27J0    TRUE
##  8 iU8tl8bf93 rxRd3a56DI    TRUE
##  9 iU8tl8bf93 hZ4lXxuQfp    TRUE
## 10 iU8tl8bf93 XqaY4Tv8gS    TRUE
## # ... with 11 more rows
## 
## 
## ------------------------------
## $bXv
## # A tibble: 638 x 3
##       branch_ order_    vertex_
##         <chr>  <int>      <chr>
##  1 luW7xnb9SL      1 QqLpqwKW9H
##  2 luW7xnb9SL      2 100n7GrKl0
##  3 luW7xnb9SL      3 hhybIJEzIY
##  4 luW7xnb9SL      4 6ijyhxtKZi
##  5 luW7xnb9SL      5 FtvtWBlEAH
##  6 luW7xnb9SL      6 RnzNuzcovi
##  7 luW7xnb9SL      7 nV4hqvBjw2
##  8 luW7xnb9SL      8 GoPa1bdLBo
##  9 luW7xnb9SL      9 lXhZhorjsn
## 10 luW7xnb9SL     10 SO7y5ifMDu
## # ... with 628 more rows
## 
## 
## ------------------------------
## $v
## # A tibble: 614 x 3
##          x_        y_    vertex_
##       <dbl>     <dbl>      <chr>
##  1 145.3980 -40.79255 QqLpqwKW9H
##  2 146.3641 -41.13770 100n7GrKl0
##  3 146.9086 -41.00055 hhybIJEzIY
##  4 147.6893 -40.80826 6ijyhxtKZi
##  5 148.2891 -40.87544 FtvtWBlEAH
##  6 148.3599 -42.06245 RnzNuzcovi
##  7 148.0173 -42.40702 nV4hqvBjw2
##  8 147.9141 -43.21152 GoPa1bdLBo
##  9 147.5646 -42.93769 lXhZhorjsn
## 10 146.8703 -43.63460 SO7y5ifMDu
## # ... with 604 more rows
…
## Joining, by = "object_"

## Joining, by = "triangle_"

subid <- currentSubscene3d()
rglwidget(elementId="png_anz_globe")

Why do this? It’s not just to plot a globe, but to see why it’s helpful to see what the function globe() does.

Run the layer through globe() and print out the vertices table.

prim2D$v

## # A tibble: 614 x 3
##          x_        y_    vertex_
##       <dbl>     <dbl>      <chr>
##  1 114.6165 -28.51640 YK4JKhzK8H
##  2 114.6420 -28.81023 9ykDihwoOJ
##  3 115.0400 -29.46110 zMM3d5lPQH
##  4 114.2329 -26.29845 HtDtmVBT4n
##  5 113.7784 -26.54903 QFfdiGdy6v
##  6 114.0489 -27.33477 v8VinH4DCE
##  7 114.1736 -28.11808 V1fm56kLiG
##  8 113.4775 -26.54313 YjF7ry9beh
##  9 115.0268 -34.19652 opq2S4KAZn
## 10 115.5451 -33.48726 RuVSF0LMck
## # ... with 604 more rows

anglr::globe(prim2D)$v

## # A tibble: 614 x 4
##          x_      y_    vertex_       z_
##       <dbl>   <dbl>      <chr>    <dbl>
##  1 -2336231 5098892 YK4JKhzK8H -3026914
##  2 -2331985 5083655 9ykDihwoOJ -3055489
##  3 -2352381 5035508 zMM3d5lPQH -3118501
##  4 -2348469 5217578 HtDtmVBT4n -2808743
##  5 -2302026 5224737 QFfdiGdy6v -2833605
##  6 -2310595 5177787 v8VinH4DCE -2911217
##  7 -2305320 5135903 V1fm56kLiG -2988053
##  8 -2274676 5237020 YjF7ry9beh -2833021
##  9 -2234102 4785201 opq2S4KAZn -3564497
## 10 -2296191 4804324 RuVSF0LMck -3499156
## # ... with 604 more rows
…
