Antarctic coastline — cst10 • anglr
…
## compare 14993 unique vertices after rounding to
silicate::sc_vertex(p)     ## 21875
#> # A tibble: 21,875 x 2
#>           x_       y_
#>        <dbl>    <dbl>
#>  1 -2661902. 1488199.
#>  2 -2659465. 1460762.
#>  3 -2659332. 1487117.
#>  4 -2659076. 1464646.
#>  5 -2658998. 1393770.
#>  6 -2658790. 1383527.
#>  7 -2658556. 1483617.
#>  8 -2657841. 1487691.
#>  9 -2657524. 1394738.
#> 10 -2655128. 1490701.
#> # ... with 21,865 more rows

silicate::sc_vertex(cst10) ## 21875
#> # A tibble: 21,875 x 2
#>           x_       y_
#>        <dbl>    <dbl>
#>  1 -2661902. 1488199.
#>  2 -2659465. 1460762.
#>  3 -2659332. 1487117.
#>  4 -2659076. 1464646.
#>  5 -2658998. 1393770.
#>  6 -2658790. 1383527.
#>  7 -2658556. 1483617.
#>  8 -2657841. 1487691.
#>  9 -2657524. 1394738.
#> 10 -2655128. 1490701.
#> # ... with 21,865 more rows
…
