QUAD model — QUAD • anglr
…
    Value

    QUAD model

    Examples

QUAD(raster::raster(volcano))
#> $object
#> # A tibble: 1 x 7
#>   object_  xmin  xmax  ymin  ymax  nrow  ncol
#>     <int> <dbl> <dbl> <dbl> <dbl> <dbl> <dbl>
#> 1       1    0.    1.    0.    1.   87.   61.
#> 
#> $quad
#> # A tibble: 5,307 x 3
#>     quad object_ value
#>    <int>   <dbl> <dbl>
#>  1     1      1.  100.
#>  2     2      1.  100.
#>  3     3      1.  101.
#>  4     4      1.  101.
#>  5     5      1.  101.
#>  6     6      1.  101.
#>  7     7      1.  101.
#>  8     8      1.  100.
#>  9     9      1.  100.
#> 10    10      1.  100.
#> # ... with 5,297 more rows
#> 
#> $quad_link_vertex
#> # A tibble: 21,228 x 2
#>    vertex_ quad_
#>      <dbl> <int>
#>  1      1.     1
#>  2      2.     1
#>  3     64.     1
#>  4     63.     1
#>  5      2.     2
#>  6      3.     2
#>  7     65.     2
#>  8     64.     2
#>  9      3.     3
#> 10      4.     3
#> # ... with 21,218 more rows
#> 
#> $vertex
#> # A tibble: 5,456 x 3
#>        x_    y_    z_
#>     <dbl> <dbl> <dbl>
#>  1 0.        1.    0.
#>  2 0.0164    1.    0.
#>  3 0.0328    1.    0.
#>  4 0.0492    1.    0.
#>  5 0.0656    1.    0.
#>  6 0.0820    1.    0.
#>  7 0.0984    1.    0.
#>  8 0.115     1.    0.
#>  9 0.131     1.    0.
#> 10 0.148     1.    0.
#> # ... with 5,446 more rows
…
