simple world — simpleworld • anglr
…
#> #   gu_a3 <chr>, su_dif <dbl>, subunit <chr>, su_a3 <chr>, brk_diff <dbl>,
#> #   name <chr>, name_long <chr>, brk_a3 <chr>, brk_name <chr>, brk_group <chr>,
#> #   abbrev <chr>, postal <chr>, formal_en <chr>, formal_fr <chr>,
#> #   note_adm0 <chr>, note_brk <chr>, name_sort <chr>, name_alt <chr>,
#> #   mapcolor7 <dbl>, mapcolor8 <dbl>, mapcolor9 <dbl>, mapcolor13 <dbl>,
#> #   pop_est <dbl>, gdp_md_est <dbl>, pop_year <dbl>, lastcensus <dbl>,
#> #   gdp_year <dbl>, economy <chr>, income_grp <chr>, wikipedia <dbl>,
#> #   fips_10 <chr>, iso_a2 <chr>, iso_a3 <chr>, iso_n3 <chr>, un_a3 <chr>,
#> #   wb_a2 <chr>, wb_a3 <chr>, woe_id <dbl>, adm0_a3_is <chr>, adm0_a3_us <chr>,
#> #   adm0_a3_un <dbl>, adm0_a3_wb <dbl>, continent <chr>, region_un <chr>,
#> #   subregion <chr>, region_wb <chr>, name_len <dbl>, long_len <dbl>,
#> #   abbrev_len <dbl>, tiny <dbl>, homepart <dbl>, object_ <chr>
#> 
#> $t
#> # A tibble: 1,217 x 2
#>    object_    triangle_ 
#>    <chr>      <chr>     
#>  1 90867f137d e4593e2aba
#>  2 90867f137d fcce581687
#>  3 90867f137d 50f40a28b1
#>  4 90867f137d 88ca85c73c
#>  5 90867f137d 8d9df11db9
#>  6 90867f137d b059b8e01e
#>  7 90867f137d 8a291de304
#>  8 90867f137d bd5762da08
#>  9 90867f137d f76485a7e7
#> 10 90867f137d 61f1db2e00
#> # ... with 1,207 more rows
#> 
#> $tXv
#> # A tibble: 3,651 x 2
#>    vertex_    triangle_ 
#>    <chr>      <chr>     
#>  1 4e6d1c1418 2eb3f41565
#>  2 3b3d05a4f4 2eb3f41565
#>  3 5b93b23710 2eb3f41565
#>  4 4ef8daccb3 f669258f7b
#>  5 5b93b23710 f669258f7b
#>  6 3b3d05a4f4 f669258f7b
#>  7 3b3d05a4f4 d833776c2c
#>  8 732d4ce08d d833776c2c
#>  9 4ef8daccb3 d833776c2c
#> 10 bd57038afd df36d99ba8
#> # ... with 3,641 more rows
#> 
#> $v
#> # A tibble: 1,257 x 3
#>       x_    y_ vertex_   
#>    <dbl> <dbl> <chr>     
#>  1  61.2  35.7 53dd19a1db
#>  2  62.2  35.3 7ab3913fa2
#>  3  63.0  35.4 06d300c270
#>  4  63.2  35.9 6642371435
#>  5  64.0  36.0 2ef0acc0dc
#>  6  64.5  36.3 20f22e5beb
#>  7  64.7  37.1 3c54d7b89d
#>  8  65.6  37.3 1e094acffb
#>  9  65.7  37.7 66aeb24442
#> 10  66.2  37.4 b6903953f6
#> # ... with 1,247 more rows
…
